/Users/andrea/Projects/EclipseProjects/ws_polimi/mw_imageserver/src/it/polimi/imageserver/config/ImageServerConfig.java
/Users/andrea/Projects/EclipseProjects/ws_polimi/mw_imageserver/src/it/polimi/imageserver/dao/UserDAO.java
/Users/andrea/Projects/EclipseProjects/ws_polimi/mw_imageserver/src/it/polimi/imageserver/response/UserResponse.java
/Users/andrea/Projects/EclipseProjects/ws_polimi/mw_imageserver/src/it/polimi/imageserver/test/ImageResourceClientTest.java
/Users/andrea/Projects/EclipseProjects/ws_polimi/mw_imageserver/src/it/polimi/imageserver/test/UserResourceMockitoTest.java
/Users/andrea/Projects/EclipseProjects/ws_polimi/mw_imageserver/src/it/polimi/imageserver/exception/UserNotCreatedException.java
/Users/andrea/Projects/EclipseProjects/ws_polimi/mw_imageserver/src/it/polimi/imageserver/resource/ImageResource.java
/Users/andrea/Projects/EclipseProjects/ws_polimi/mw_imageserver/src/it/polimi/imageserver/test/UserResourceDAOmapTest.java
/Users/andrea/Projects/EclipseProjects/ws_polimi/mw_imageserver/src/it/polimi/imageserver/model/Image.java
/Users/andrea/Projects/EclipseProjects/ws_polimi/mw_imageserver/src/it/polimi/imageserver/model/User.java
/Users/andrea/Projects/EclipseProjects/ws_polimi/mw_imageserver/src/it/polimi/imageserver/exception/UserNotUpdatedException.java
/Users/andrea/Projects/EclipseProjects/ws_polimi/mw_imageserver/src/it/polimi/imageserver/dao/UserDAOdb.java
/Users/andrea/Projects/EclipseProjects/ws_polimi/mw_imageserver/src/it/polimi/imageserver/response/UsersListResponse.java
/Users/andrea/Projects/EclipseProjects/ws_polimi/mw_imageserver/src/it/polimi/imageserver/dao/UserDAOmap.java
/Users/andrea/Projects/EclipseProjects/ws_polimi/mw_imageserver/src/it/polimi/imageserver/resource/UserResource.java
/Users/andrea/Projects/EclipseProjects/ws_polimi/mw_imageserver/src/it/polimi/imageserver/exception/UserNotFoundException.java
/Users/andrea/Projects/EclipseProjects/ws_polimi/mw_imageserver/src/it/polimi/imageserver/exception/ImageNotFoundException.java
/Users/andrea/Projects/EclipseProjects/ws_polimi/mw_imageserver/src/it/polimi/imageserver/response/GenericResponse.java
/Users/andrea/Projects/EclipseProjects/ws_polimi/mw_imageserver/src/it/polimi/imageserver/test/UserResourceDAOdbClientTest.java
/Users/andrea/Projects/EclipseProjects/ws_polimi/mw_imageserver/src/it/polimi/imageserver/test/ImageResourceTest.java
/Users/andrea/Projects/EclipseProjects/ws_polimi/mw_imageserver/src/it/polimi/imageserver/response/ImageResponse.java
/Users/andrea/Projects/EclipseProjects/ws_polimi/mw_imageserver/src/it/polimi/imageserver/config/MOXyJsonContextResolver.java
